-8 -16 -24 -32 -40 -48 -56 -64 -72 -80 472
-80 -72 -64 -56 -48 -40 -32 -24 -16 -8 472
-8 -24 -16 -32 -48 -40 -64 -56 -72 -80 472
992
-320 480 -16 152
992
232 -56 -48 -40 -32 -24 -16 -8 472
728 -80 168
992
-320 72 -160 416
-160 -40 -80 -64 616
